Colias biogeography
…
# Root
states_131 <- states_log %>% 
  select("end_131") %>% 
  group_by(end_131) %>% 
  summarise(freq = n()) %>% 
  rename(state = end_131) %>% 
  left_join(state_labels) %>% 
  arrange(desc(freq)) %>% 
  mutate(prob = freq/501,
         cum_prob = cumsum(prob))

states_131

# A tibble: 42 × 5
   state  freq combination                   prob cum_prob
   <dbl> <int> <chr>                        <dbl>    <dbl>
 1   108   183 EPa+WPa+NAr+PTH+NTr         0.365     0.365
 2   120    46 SEA+EPa+WPa+NAr+PTH+NTr     0.0918    0.457
 3   125    45 EPa+WPa+NAr+PTH+Afr+NTr     0.0898    0.547
 4    84    35 EPa+WPa+PTH+NTr             0.0699    0.617
 5    87    30 WPa+NAr+PTH+NTr             0.0599    0.677
 6    86    26 EPa+NAr+PTH+NTr             0.0519    0.729
 7    67    13 EPa+WPa+NAr+PTH             0.0259    0.754
 8   115    12 EPa+WPa+PTH+Afr+NTr         0.0240    0.778
 9   126    11 SEA+EPa+WPa+NAr+PTH+Afr+NTr 0.0220    0.800
10   105    10 SEA+EPa+WPa+PTH+NTr         0.0200    0.820
# ℹ 32 more rows
…
# Ancestor of Norther hemisphere clade
states_130 <- states_log %>% 
  select("end_130") %>% 
  group_by(end_130) %>% 
  summarise(freq = n()) %>% 
  rename(state = end_130) %>% 
  left_join(state_labels) %>% 
  arrange(desc(freq)) %>% 
  mutate(prob = freq/501,
         cum_prob = cumsum(prob))

states_130

# A tibble: 36 × 5
   state  freq combination               prob cum_prob
   <dbl> <int> <chr>                    <dbl>    <dbl>
 1    67   155 EPa+WPa+NAr+PTH         0.309     0.309
 2   108   107 EPa+WPa+NAr+PTH+NTr     0.214     0.523
 3   125    27 EPa+WPa+NAr+PTH+Afr+NTr 0.0539    0.577
 4    98    26 SEA+EPa+WPa+NAr+PTH     0.0519    0.629
 5   103    26 EPa+WPa+NAr+PTH+Afr     0.0519    0.681
 6   120    23 SEA+EPa+WPa+NAr+PTH+NTr 0.0459    0.727
 7    34    19 EPa+WPa+PTH             0.0379    0.764
 8    84    18 EPa+WPa+PTH+NTr         0.0359    0.800
 9    87    12 WPa+NAr+PTH+NTr         0.0240    0.824
10    37     9 WPa+NAr+PTH             0.0180    0.842
# ℹ 26 more rows
…
